<?xml version="1.0" encoding="utf-8"?>
<!-- Generator: Adobe Illustrator 23.1.0, SVG Export Plug-In . SVG Version: 6.00 Build 0)  -->
<svg version="1.0" id="Layer_1" xmlns="http://www.w3.org/2000/svg" xmlns:xlink="http://www.w3.org/1999/xlink" x="0px" y="0px"
	 viewBox="0 0 1000 1000" enable-background="new 0 0 1000 1000" xml:space="preserve">
<g>
	<g>
		<path fill="#761A15" d="M889.6,325.3L749.4,442.8c18.9,23.9,34,50.1,45.2,78l171.9-62.6C947.7,409.8,921.6,365,889.6,325.3z"/>
		<path fill="#761A15" d="M258.8,200.7l91.4,158.4c26.6-14.3,55.1-24.6,84.7-30.8l-31.8-180.2C351.8,158.2,303.2,176.2,258.8,200.7z
			"/>
		<path fill="#761A15" d="M973.5,477.4l-171.9,62.6c9.3,28.4,14.5,58.2,15.5,88.8h183C998.9,575.8,989.7,525,973.5,477.4z"/>
		<path fill="#761A15" d="M26.5,477.4C10.3,525,1.1,575.8,0,628.7h183c1-30.6,6.2-60.4,15.5-88.8L26.5,477.4z"/>
		<path fill="#761A15" d="M596.8,148.1l-31.8,180.2c29.7,6.2,58.2,16.5,84.7,30.8l91.4-158.4C696.8,176.2,648.2,158.2,596.8,148.1z"
			/>
		<path fill="#761A15" d="M33.5,458.3l171.9,62.6c11.2-27.9,26.3-54.1,45.2-78L110.4,325.3C78.4,365,52.3,409.8,33.5,458.3z"/>
		<path fill="#761A15" d="M263.7,427.3c3.9-4.3,7.9-8.6,12-12.7c17.4-17.4,36.5-32.6,56.9-45.3l-91.5-158.4
			c-44.2,26.8-83.8,60.2-117.7,98.8L263.7,427.3z"/>
		<path fill="#761A15" d="M454.9,324.8c14.8-2.1,29.8-3.2,45.1-3.2c15.2,0,30.3,1.1,45.1,3.2l31.8-180.2c-25-3.9-50.7-5.9-76.8-5.9
			c-26.1,0-51.8,2-76.8,5.9L454.9,324.8z"/>
		<path fill="#761A15" d="M667.4,369.3c20.4,12.7,39.5,27.9,56.9,45.3c4.1,4.1,8.2,8.4,12,12.7l140.1-117.6
			c-33.8-38.7-73.5-72.1-117.7-98.8L667.4,369.3z"/>
	</g>
	<rect y="646.8" fill="#761A15" width="189" height="97.2"/>
	<rect x="202.7" y="646.8" fill="#761A15" width="189" height="97.2"/>
	<rect x="405.5" y="646.8" fill="#761A15" width="189" height="97.2"/>
	<rect x="608.2" y="646.8" fill="#761A15" width="189" height="97.2"/>
	<rect x="811" y="646.8" fill="#761A15" width="189" height="97.2"/>
	<rect x="101.4" y="764" fill="#761A15" width="189" height="97.2"/>
	<rect x="304.1" y="764" fill="#761A15" width="189" height="97.2"/>
	<rect x="506.9" y="764" fill="#761A15" width="189" height="97.2"/>
	<rect x="709.6" y="764" fill="#761A15" width="189" height="97.2"/>
	<rect x="912.4" y="764" fill="#761A15" width="87.6" height="97.2"/>
	<rect y="764" fill="#761A15" width="87.6" height="97.2"/>
</g>
</svg>
